Lab 2 - Data wrangling
…
Illinois has the greatest number of counties at 102, and Wisconsin has the lowest at 72, across Midwest states.

Question 2

midwest_duplicate <- midwest |> group_by(county) |> summarize(count = n()) |> filter(count >= 2) |> arrange(desc(count))
midwest_duplicate

# A tibble: 70 × 2
   county     count
   <chr>      <int>
 1 CRAWFORD       5
 2 JACKSON        5
 3 MONROE         5
 4 ADAMS          4
 5 BROWN          4
 6 CLARK          4
 7 CLINTON        4
 8 JEFFERSON      4
 9 LAKE           4
10 WASHINGTON     4
# ℹ 60 more rows
…
midwest_outliers <- midwest |> select(county, state, percbelowpoverty, percollege) |> 
  mutate(potential_outlier = if_else((percbelowpoverty <20 & percollege >40) | (percbelowpoverty > 45 & percollege <8), "Yes", "No")) |>
  arrange(potential_outlier)
midwest_outliers

# A tibble: 437 × 5
   county    state percbelowpoverty percollege potential_outlier
   <chr>     <chr>            <dbl>      <dbl> <chr>            
 1 ADAMS     IL               13.2        19.6 No               
 2 ALEXANDER IL               32.2        11.2 No               
 3 BOND      IL               12.1        17.0 No               
 4 BOONE     IL                7.21       17.3 No               
 5 BROWN     IL               13.5        14.5 No               
 6 BUREAU    IL               10.4        18.9 No               
 7 CALHOUN   IL               15.1        11.9 No               
 8 CARROLL   IL               11.7        16.2 No               
 9 CASS      IL               13.9        14.1 No               
10 CHRISTIAN IL               11.7        13.6 No               
# ℹ 427 more rows
…
